<?xml version="1.0" encoding="utf-8"?>
<!-- Generator: Adobe Illustrator 18.0.0, SVG Export Plug-In . SVG Version: 6.00 Build 0)  -->
<!DOCTYPE svg PUBLIC "-//W3C//DTD SVG 1.1//EN" "http://www.w3.org/Graphics/SVG/1.1/DTD/svg11.dtd">
<svg version="1.1" id="Layer_1" xmlns="http://www.w3.org/2000/svg" xmlns:xlink="http://www.w3.org/1999/xlink" x="0px" y="0px"
	 viewBox="0 0 399.2 399.2" enable-background="new 0 0 399.2 399.2" xml:space="preserve">
<g>
	<g>
		<path fill="#FFFFFF" d="M199.6,112.5C92.1,112.5,5,156.2,5,210.2c0,53.9,87.1,97.6,194.6,97.6s194.5-43.7,194.5-97.6
			C394.1,156.2,307,112.5,199.6,112.5z M199.6,295.5c-94.7,0-171.8-38.3-171.8-85.3c0-47.1,77.1-85.3,171.8-85.3
			c94.7,0,171.8,38.3,171.8,85.3C371.3,257.2,294.3,295.5,199.6,295.5z"/>
		<path fill-rule="evenodd" clip-rule="evenodd" fill="#FFFFFF" d="M180.7,166.4h3.1c1.1,0,2,0.9,2,2v89.2c0,1.2,0.9,2.1,2.1,2.1
			h23.4c1.2,0,2.1-0.9,2.1-2.1v-95.1c0-1.2-0.9-2.1-2.1-2.1h-30.6c-0.3,0-0.3,0.3-0.3,0.5v5C180.4,166.1,180.4,166.4,180.7,166.4z"
			/>
		<path fill-rule="evenodd" clip-rule="evenodd" fill="#FFFFFF" d="M233.4,259.7h22.9c1.1,0,2.3-0.9,2.8-2.1l19.6-61.6
			c0,0,0.2-0.9,1-0.9c0.7,0,0.9,0.9,0.9,0.9l19.8,61.6c0.5,1.2,1.6,2.1,2.8,2.1H326c0.8,0,1.3-0.4,1.5-0.7c0.4-0.6,0.5-1.4,0.3-1.8
			l-31.9-95.3c-0.5-1.2-1.7-1.4-2.8-1.4h-36.6c-0.3,0-0.5,0.2-0.5,0.5v5c0,0.3,0.3,0.5,0.5,0.5h2.7c1.2,0,2,0.7,2,1.7
			c0,0.3-0.1,0.7-0.2,1.1l-29.5,87.9c-0.2,0.6,0,1.3,0.4,1.8C232.2,259.4,232.7,259.7,233.4,259.7z"/>
		<path fill-rule="evenodd" clip-rule="evenodd" fill="#FFFFFF" d="M77.2,166.4c1.1,0,2,0.9,2,2v89.2c0,1.2,0.9,2.1,2.1,2.1H104
			c1.1,0,2.1-0.9,2.1-2.1v-37.5c0-0.8,0.4-1.3,1-1.3c0.8,0,1.1,0.5,1.4,1c0,0,0.1,0.1,0.1,0.1l26.8,37.5c0.9,1.3,2.4,2.3,3.6,2.3h27
			c0.6,0,1.3-0.5,1.7-1.1c0.4-0.7,0.3-1.4-0.2-2.2c-0.1-0.1-33.8-47.8-34.2-48.3c-0.1-0.1-0.1-0.2-0.2-0.3c-0.1-0.1-0.1-0.3-0.2-0.4
			c0-0.1-0.1-0.2-0.1-0.3c0-0.4,0.2-0.8,0.4-1.2l0-0.1l28.6-42.3c0.4-0.6,0.4-1.4,0-2c-0.4-0.6-1-1-1.6-1h-25.6
			c-1.2,0-2.8,1-3.7,2.3l-22.3,31.5c-0.7,1-1.4,1.1-1.5,1.1h0c-0.6,0-1-0.4-1-1.1v-31.7c0-1.2-0.9-2.1-2.1-2.1H74.1
			c-0.3,0-0.5,0.2-0.5,0.5v5c0,0.3,0.3,0.5,0.5,0.5H77.2z"/>
	</g>
</g>
</svg>
