<?xml version="1.0" encoding="utf-8"?>
<!-- Generator: Adobe Illustrator 18.0.0, SVG Export Plug-In . SVG Version: 6.00 Build 0)  -->
<!DOCTYPE svg PUBLIC "-//W3C//DTD SVG 1.1//EN" "http://www.w3.org/Graphics/SVG/1.1/DTD/svg11.dtd">
<svg version="1.1" id="Layer_1" xmlns="http://www.w3.org/2000/svg" xmlns:xlink="http://www.w3.org/1999/xlink" x="0px" y="0px"
	 viewBox="0 0 399.2 241.8" enable-background="new 0 0 399.2 241.8" xml:space="preserve">
<g>
	<g>
		<path fill-rule="evenodd" clip-rule="evenodd" fill="#FFFFFF" d="M346,228.4l0-4.5h-36.9c0-1.7,0.6-2.8,1.3-3.3
			c0.9-0.6,2.3-1,5.8-0.9l29.7,0l0-4.3h-35.6c-4.7,0-7.9,0.9-7.9,10.8c0,9.8,2.4,10.8,7.9,10.8H346l0-4.5h-29.7
			c-2.5,0-4.5,0.2-5.9-0.5c-1.1-0.6-1.3-1.4-1.3-3.4H346z"/>
		<path fill-rule="evenodd" clip-rule="evenodd" fill="#FFFFFF" d="M223.8,228.4h13.8c2.1,0,2.5,1.1,2.5,2c0,0.9-0.3,2-2.5,2h-32.9
			c-2.1,0-2.2,4.5,0,4.5c0,0,31.3,0,32.9,0c0.1,0,6.9,0,6.9-6.5c0-6.5-6.9-6.5-6.9-6.5c-3.9,0-9.5,0-14.5,0v0h-13.8
			c-2.1,0-2.5-1.1-2.5-2c0-0.9,0.3-2,2.5-2h32.9c2.1,0,2.2-4.6,0-4.6c0,0-31.3,0-32.9,0c-0.1,0-6.9,0.1-6.9,6.6
			c0,6.5,6.9,6.5,6.9,6.5C213.1,228.4,218.7,228.4,223.8,228.4L223.8,228.4z"/>
		<path fill-rule="evenodd" clip-rule="evenodd" fill="#FFFFFF" d="M294.3,236.9h-33.9c-6.5,0-8.8-1.9-8.7-6.9l0-14.7l5.8,0l0,13.1
			c-0.3,3,1.1,4.2,4.2,4h32.6C295.6,232.4,295.5,236.9,294.3,236.9z"/>
		<path fill-rule="evenodd" clip-rule="evenodd" fill="#FFFFFF" d="M353.2,215.3c0,0,26.2,0,34.2,0c12.2-0.1,12.5,13.8,1.1,13.9
			c-0.2,0-0.7,0.1-0.9,0.1l0.1,1.3c2.1,1.4,5.2,3.5,7.9,3.9c1.1,0,1.1,2.4,0.5,2.4h-3.6l-15.7-7.5h-19.6v7.5h-4.2L353.2,215.3
			L353.2,215.3z M357.3,219.6v5.4c0,0,21.6,0,28.2,0c7.9,0,7.7-5.4-0.1-5.4C378.8,219.6,357.3,219.6,357.3,219.6z"/>
		<path fill-rule="evenodd" clip-rule="evenodd" fill="#FFFFFF" d="M171,235.9l0-7.6c-7.8-0.4-18.6-2.8-19.4-13h5.6
			c0.6,7.1,8.2,8.3,16.2,8.3c1.9,0,15.3,0.3,16.2-8.3h5.6c-0.8,10.2-11.8,12.7-19.6,13l0,7.6C175.6,237.2,171,237.2,171,235.9z"/>
		<polygon fill-rule="evenodd" clip-rule="evenodd" fill="#FFFFFF" points="88.7,215.3 93.5,215.3 93.5,236.9 88.7,236.9 
			88.7,228.3 57.5,228.3 57.5,236.9 52.6,236.9 52.6,215.3 57.5,215.3 57.5,224 88.7,224 		"/>
		<path fill-rule="evenodd" clip-rule="evenodd" fill="#FFFFFF" d="M100.7,215.3c0,0,26.2,0,34.2,0c12.2-0.1,12.5,13.8,1.1,13.9
			c-0.2,0-0.7,0.1-0.9,0.1l0.1,1.3c2.1,1.4,5.2,3.5,7.9,3.9c1.1,0,1.1,2.4,0.5,2.4h-3.6l-15.7-7.5h-19.6v7.5h-4.2L100.7,215.3
			L100.7,215.3z M104.9,219.6v5.4c0,0,21.6,0,28.2,0c7.9,0,7.7-5.4-0.1-5.4C126.3,219.6,104.9,219.6,104.9,219.6z"/>
		<path fill-rule="evenodd" clip-rule="evenodd" fill="#FFFFFF" d="M7.3,226.7L7.3,226.7c-0.2-3.7,8.1-6.9,16.7-6.8
			c13.3-0.1,18.8,4.2,19,4.4c0.6,0.4,2.8-3.6,2.2-4c-7.4-4-13.7-4.9-21.2-4.9c-12.6,0-21.6,4.3-21.8,11.3l0-0.1
			c0.4,10,14.9,11.4,21.8,11.4c7.5,0,13.9-0.9,21.2-4.9c0.6-0.4-1.1-4.4-2.2-4c-0.2,0-5.8,4.5-19,4.4
			C15.5,233.6,7.1,230.3,7.3,226.7z"/>
	</g>
	<g>
		<path fill-rule="evenodd" clip-rule="evenodd" fill="#FFFFFF" d="M249.2,38.2l-2.9-2.1l-46.8-34L165.4,27l-12.6,9.2l-46.8,34
			l17.9,55l17.9,55h23.6h34.2h49.6h8.2l17.9-55l17.9-55L249.2,38.2L249.2,38.2L249.2,38.2z M241.6,42.7l7.6,5.5l32.9,23.9l-32.9,6
			l-39.8,7.2l-8.5-72.2L241.6,42.7L241.6,42.7L241.6,42.7z M157.4,42.7l8-5.8l33-23.9l-9.5,72.6L165.4,81l-48.1-9.2L157.4,42.7
			L157.4,42.7L157.4,42.7z M131.4,122.8l-16-49.3l50,22.5l17.2,7.7l-17.2,31.8L146.7,170L131.4,122.8L131.4,122.8L131.4,122.8z
			 M249.2,172.3h-49.6h-34.1h-17.2l17.2-18.5l34.4-37l49.4,54.2l1.1,1.3H249.2L249.2,172.3L249.2,172.3z M267.7,122.8L252,170.9
			l-2.8-5.3l-32.9-60.9l32.9-15l34.3-15.6L267.7,122.8L267.7,122.8L267.7,122.8z"/>
	</g>
</g>
</svg>
