<?xml version="1.0" encoding="utf-8"?>
<!-- Generator: Adobe Illustrator 18.0.0, SVG Export Plug-In . SVG Version: 6.00 Build 0)  -->
<!DOCTYPE svg PUBLIC "-//W3C//DTD SVG 1.1//EN" "http://www.w3.org/Graphics/SVG/1.1/DTD/svg11.dtd">
<svg version="1.1" id="Layer_1" xmlns="http://www.w3.org/2000/svg" xmlns:xlink="http://www.w3.org/1999/xlink" x="0px" y="0px"
	 viewBox="0 0 399.2 308" enable-background="new 0 0 399.2 308" xml:space="preserve">
<g>
	<g>
		<path fill="#FFFFFF" d="M236.9,116.2c-16.6,35.5-36.1,71.4-60,112.5h1.8h48.1c1.8,0,3.3-0.4,4.2-2c20-32.4,42.7-74.9,59.6-110.1
			c0-0.1,0.1-0.2,0.1-0.3H236.9z"/>
		<path fill="#FFFFFF" d="M112.6,116.2v2.7c15.8,32.2,37.4,72.6,59.7,107.7c0.7,1.1,1.3,1.6,2.1,1.8c8.1-12.9,17.6-29.2,25.2-43.6
			c-11.1-19.6-25.2-47.2-34.8-68.7H112.6z"/>
		<path fill="#FFFFFF" d="M226.7,2.4c-4.2,6.3-16.1,27.4-22.9,39.6l-1.6,2.9c11.3,20.6,28.4,53.9,35.5,69.8h53.3
			c1.5,0,2.1-0.5,1.1-2.6c-17.4-37-38.7-74.7-61.1-109.8L226.7,2.4z"/>
		<path fill="#FFFFFF" d="M172.1,2.4c-0.3,0.3-0.6,0.7-0.9,1C149.3,39,131,73.1,112.6,110.5v4.2h51.5C180.8,77.7,206,33.1,224.4,2.4
			H172.1z"/>
	</g>
	<g>
		<path fill="#FFFFFF" d="M313.1,269.9h1.2c1-1.9,2.9-3.1,5.2-3.1h8.2v37.7H340v-37.7h8.2c2.3,0,4.2,1.2,5.2,3.1h1.2v-8.2h-41.4
			V269.9z"/>
		<path fill="#FFFFFF" d="M313.7,299.4h-13.2v-37.7h-14.9v1.1c1.6,1.1,2.6,2.9,2.6,5.2v36.5H320v-8.2h-1.1
			C317.9,298.2,316,299.4,313.7,299.4"/>
		<path fill="#FFFFFF" d="M269.1,262.8c1.6,1.1,2.6,2.9,2.6,5.2v16.4c0,8.3-2.9,12.8-10.4,12.8c-7.6,0-10.4-4.5-10.4-12.8v-22.7
			h-14.9v1.1c1.6,1.1,2.6,2.9,2.6,5.2v18.7c0,10.4,6.5,18.7,19.4,18.7c14.2,0,20-6.4,20-20.3v-23.4h-8.8V262.8z"/>
		<path fill="#FFFFFF" d="M233.4,300.2l-16.6-38.5h-9.6l-18.7,42.8h7.2l4-9.8H218l3.8,9.8h14.9v-1.2
			C235.3,302.8,234.1,301.6,233.4,300.2 M202,289.6l7.2-16.6l6.8,16.6H202z"/>
		<path fill="#FFFFFF" d="M175.2,262.8c1.6,1.1,2.6,2.9,2.6,5.2v25.2l-19.5-31.5h-16.6v1.1c1.6,1.1,2.6,2.9,2.6,5.2v36.5h6.2V273
			l19.5,31.5h14v-42.8h-8.8V262.8z"/>
		<path fill="#FFFFFF" d="M129.4,299.4h-14.5V285h16.4v-5.2h-16.4v-13h14c2.3,0,4.1,1,5.2,2.6h1.1v-7.7H100v1.1
			c1.6,1.1,2.6,2.9,2.6,5.2v36.5h33.2v-7.9h-1.2C133.6,298.4,131.9,299.4,129.4,299.4"/>
		<path fill="#FFFFFF" d="M93.5,300.8L83,285c5.3-1.6,9.4-6,9.4-11.7c0-7.4-5.7-11.6-14.4-11.6H50.6v1.1c1.6,1.1,2.6,2.9,2.6,5.2
			v36.5h12.3v-18.2h4.6l10.2,18.2h16.5v-1.2C95.5,302.9,94.4,302,93.5,300.8 M70.9,281.6h-5.4v-15.1h5.4c4.5,0,8.4,2.3,8.4,7.4
			C79.3,279,75.7,281.6,70.9,281.6"/>
	</g>
</g>
</svg>
